…
### Breed Ranking

Let’s take a look at the breed ranking dataset. It shows the ranking of
195 dog breeds across 8 years (2013-2020).

``` r
breed_rank_all
```

    ## # A tibble: 195 x 11
    ##    Breed `2013 Rank` `2014 Rank` `2015 Rank` `2016 Rank` `2017 Rank` `2018 Rank`
    ##    <chr>       <dbl>       <dbl>       <dbl>       <dbl>       <dbl>       <dbl>
    ##  1 Retr~           1           1           1           1           1           1
    ##  2 Fren~          11           9           6           6           4           4
    ##  3 Germ~           2           2           2           2           2           2
    ##  4 Retr~           3           3           3           3           3           3
    ##  5 Bull~           5           4           4           4           5           5
    ##  6 Pood~           8           7           8           7           7           7
    ##  7 Beag~           4           5           5           5           6           6
    ##  8 Rott~           9          10           9           8           8           8
    ##  9 Poin~          13          12          11          11          10           9
    ## 10 Dach~          10          11          13          13          13          12
    ## # ... with 185 more rows, and 4 more variables: 2019 Rank <dbl>,
    ## #   2020 Rank <dbl>, links <chr>, Image <chr>
…
